…
#Most common words
data2 %>%
  group_by(Category) %>%
  mutate(linenumber = row_number(),
         chapter = cumsum(str_detect(text, regex("^chapter[\\divxlc]", ignore_case = TRUE)))) %>%
  ungroup()
## # A tibble: 34,792 × 4
##    Category text                                                 linen…¹ chapter
##    <chr>    <chr>                                                  <int>   <int>
##  1 Neutre   " Why ? "                                                  1       0
##  2 Neutre   "Sage Act upgrade on my to do list for tommorow."          2       0
##  3 Negative "ON THE WAY TO MY HOMEGIRL BABY FUNERAL!!! MAN I HA…       1       0
##  4 Positive " Such an eye ! The true hazel eye-and so brilliant…       1       0
##  5 Neutre   "@Iluvmiasantos ugh babe.. hugggzzz for u .!  babe …       3       0
##  6 Positive "I'm expecting an extremely important phonecall any…       2       0
##  7 Negative " .Couldnt wait to see them live. If missing them i…       2       0
##  8 Neutre   "maken Tip 2: Stop op een moment dat je het hele pr…       4       0
##  9 Neutre   "En dan krijg je ff een cadeautje van een tweep #me…       5       0
## 10 Neutre   " @1116am Drummer Boy bij op verzoek van @BiemOoste…       6       0
## # … with 34,782 more rows, and abbreviated variable name ¹linenumber
…
